<?xml version="1.0" encoding="UTF-8" standalone="no"?>
<!-- Created with Inkscape (http://www.inkscape.org/) -->

<svg
   width="122.61007mm"
   height="102.65308mm"
   viewBox="0 0 122.61007 102.65308"
   version="1.1"
   id="svg5"
   inkscape:version="1.1.1 (3bf5ae0d25, 2021-09-20)"
   sodipodi:docname="NJ10vectorized.svg"
   xmlns:inkscape="http://www.inkscape.org/namespaces/inkscape"
   xmlns:sodipodi="http://sodipodi.sourceforge.net/DTD/sodipodi-0.dtd"
   xmlns="http://www.w3.org/2000/svg"
   xmlns:svg="http://www.w3.org/2000/svg"
   xmlns:rdf="http://www.w3.org/1999/02/22-rdf-syntax-ns#"
   xmlns:cc="http://creativecommons.org/ns#"
   xmlns:dc="http://purl.org/dc/elements/1.1/">
  <title
     id="title449">Vectorized</title>
  <sodipodi:namedview
     id="namedview7"
     pagecolor="#ffffff"
     bordercolor="#666666"
     borderopacity="1.0"
     inkscape:pageshadow="2"
     inkscape:pageopacity="0.0"
     inkscape:pagecheckerboard="0"
     inkscape:document-units="mm"
     showgrid="false"
     fit-margin-top="5"
     fit-margin-left="5"
     fit-margin-right="5"
     fit-margin-bottom="5"
     lock-margins="true"
     inkscape:zoom="0.94752309"
     inkscape:cx="-101.84448"
     inkscape:cy="254.87506"
     inkscape:window-width="1920"
     inkscape:window-height="991"
     inkscape:window-x="-9"
     inkscape:window-y="-9"
     inkscape:window-maximized="1"
     inkscape:current-layer="layer1" />
  <defs
     id="defs2" />
  <g
     inkscape:label="Layer 1"
     inkscape:groupmode="layer"
     id="layer1"
     transform="translate(-26.586468,-66.554784)">
    <path
       style="fill:#000000;stroke-width:0.352778"
       d="m 31.6971,163.20165 c 0.71454,-2.84824 4.49972,-12.69101 5.36045,-13.93901 2.15969,-3.13144 6.31729,-7.11562 8.45358,-8.10099 4.29606,-1.98156 13.87941,-5.29477 19.68451,-6.80544 3.31214,-0.86193 6.37926,-1.6683 6.81582,-1.79193 0.75818,-0.21471 0.79395,-0.13203 0.79813,1.84483 0.002,1.13829 0.39782,3.4919 0.87868,5.23025 0.48086,1.73835 0.7567,3.27409 0.61298,3.41277 -0.4211,0.40629 -4.08342,1.71653 -4.27171,1.52824 -0.0945,-0.0945 0.65006,-0.51915 1.65467,-0.94358 1.00461,-0.42444 1.82666,-0.85926 1.82679,-0.96627 1.3e-4,-0.10701 -0.59519,-0.19457 -1.32292,-0.19457 -1.23492,0 -1.33052,-0.0765 -1.43369,-1.14653 -0.0821,-0.85174 0.0313,-1.14652 0.44097,-1.14652 0.38815,0 0.54992,-0.33963 0.54612,-1.14653 -0.005,-1.00747 -0.6809,-2.78974 -0.69476,-1.83132 -0.003,0.20545 -0.24072,0.6817 -0.52833,1.05834 -0.4871,0.63785 -0.51068,0.60016 -0.34411,-0.54994 0.18022,-1.24426 -0.0465,-0.97876 -0.75306,0.88195 -0.25908,0.68227 -0.27242,0.68 -0.40422,-0.0687 -0.0957,-0.54367 -0.30559,-0.70928 -0.70473,-0.55612 -0.44535,0.1709 -0.5123,0.0712 -0.30917,-0.46048 0.17161,-0.44914 -0.16554,-0.26753 -0.99709,0.53713 -0.69099,0.66865 -1.25635,1.05759 -1.25635,0.86431 0,-0.19329 0.18785,-0.53928 0.41745,-0.76888 0.75232,-0.75232 -0.007,-0.88094 -1.17409,-0.19901 -0.80652,0.47103 -1.31174,1.15673 -1.71747,2.331 -0.31616,0.91501 -0.67013,1.75896 -0.78661,1.87543 -0.40092,0.40092 -0.0124,-1.60028 0.40933,-2.10845 0.34696,-0.41805 0.3019,-0.47731 -0.25264,-0.3323 -0.3712,0.0971 -0.92575,0.6799 -1.23232,1.29517 -0.30658,0.61527 -0.56698,0.88054 -0.57866,0.5895 -0.0311,-0.7757 1.31196,-2.83999 1.77979,-2.73547 0.22065,0.0493 0.47395,-0.1088 0.56288,-0.35134 0.25052,-0.68325 -0.7588,-0.5208 -1.7864,0.28751 -0.50937,0.40067 -1.07664,0.63545 -1.26062,0.52175 -0.18398,-0.11371 -0.49818,0.0744 -0.69823,0.41805 -0.34606,0.59441 -0.36426,0.59376 -0.37446,-0.0134 -0.0151,-0.89717 -0.70863,-0.37034 -0.75145,0.57081 -0.0325,0.71478 -0.055,0.70658 -0.29864,-0.10902 -0.23562,-0.78871 -0.32357,-0.67682 -0.83191,1.05834 -0.31264,1.06715 -0.67171,2.37684 -0.79794,2.91041 -0.12622,0.53358 -0.35247,0.97014 -0.50277,0.97014 -0.1503,0 -0.0714,-0.59531 0.17533,-1.32291 0.24672,-0.72761 0.562,-2.0373 0.7006,-2.91042 0.31542,-1.98704 -0.29062,-1.56848 -1.05115,0.72596 l -0.51943,1.56709 0.18939,-1.34413 0.18939,-1.34413 -0.89888,0.58897 c -0.49438,0.32393 -0.81228,0.7291 -0.70643,0.90037 0.10585,0.17127 0.0299,0.59046 -0.16869,0.93155 -0.32357,0.55563 -0.36226,0.53757 -0.37187,-0.1736 -0.0124,-0.91903 -0.27324,-0.97299 -1.22464,-0.25339 -0.53766,0.40666 -0.7449,0.4232 -0.96474,0.077 -0.19978,-0.31463 -0.28153,-0.2641 -0.28539,0.17641 -0.003,0.33955 -0.20007,0.57768 -0.438,0.52917 -0.23793,-0.0485 -0.48709,0.26899 -0.5537,0.70555 -0.13551,0.88815 -0.77759,1.09637 -0.77759,0.25218 0,-0.43411 -0.14146,-0.46587 -0.71285,-0.16008 -0.39206,0.20983 -0.86178,0.28946 -1.04382,0.17695 -0.18204,-0.1125 -0.64799,0.39609 -1.03545,1.13022 -0.48248,0.91415 -0.70939,1.12084 -0.72007,0.65591 -0.0144,-0.62792 -0.0833,-0.61527 -0.91765,0.16859 -0.53497,0.50257 -0.83554,1.10186 -0.73859,1.47261 0.13325,0.50954 -0.0626,0.62516 -1.05903,0.62516 -0.68773,0 -1.13133,0.14754 -1.01406,0.33728 0.11464,0.1855 -0.20296,0.60684 -0.70579,0.9363 -0.6883,0.45099 -0.80005,0.67145 -0.45221,0.89204 0.25411,0.16116 0.62077,0.29301 0.8148,0.29301 0.19402,0 0.13925,-0.13532 -0.12172,-0.30071 -0.34838,-0.2208 -0.22012,-0.36456 0.4826,-0.54094 0.5264,-0.13211 1.04419,-0.15311 1.15065,-0.0466 0.10646,0.10645 -0.054,0.19355 -0.35666,0.19355 -0.30262,0 -0.6416,0.23813 -0.75328,0.52917 -0.11168,0.29104 -0.51617,0.52917 -0.89887,0.52917 -1.00622,0 -1.24536,0.62984 -0.30171,0.79465 0.76414,0.13346 0.76822,0.15123 0.0934,0.40747 -2.23573,0.84898 -2.19518,0.81118 -1.2592,1.17402 0.84648,0.32815 0.8428,0.33533 -0.28797,0.56149 -1.66226,0.33245 -1.01738,1.07224 0.73033,0.83782 0.82984,-0.1113 1.75343,0.006 2.30478,0.29159 0.85099,0.44149 0.76886,0.46502 -1.09452,0.31357 -1.49374,-0.12141 -2.2154,-0.0171 -2.79148,0.40329 -0.7406,0.5405 -0.6862,0.55829 1.16334,0.3804 1.17527,-0.11304 1.523,-0.0837 0.88194,0.0745 l -1.05833,0.26112 1.05833,0.39719 c 0.63608,0.23871 0.81011,0.40829 0.43619,0.42503 -0.34218,0.0153 -0.91547,-0.15533 -1.27397,-0.37922 -0.51945,-0.3244 -0.82294,-0.27977 -1.49452,0.2198 -0.5195,0.38644 -0.60592,0.54681 -0.22534,0.41814 0.33955,-0.1148 0.61737,-0.055 0.61737,0.13298 0,0.18793 -0.22876,0.3417 -0.50835,0.3417 -0.27959,0 -0.5928,0.13665 -0.69602,0.30367 -0.1036,0.16762 0.47975,0.18134 1.30209,0.0306 1.68354,-0.30857 2.29266,-0.13633 0.73765,0.20858 -1.77029,0.39266 -1.76826,0.52193 0.006,0.37823 1.07349,-0.087 1.53906,-0.0229 1.23472,0.16981 -0.2687,0.17018 -1.07087,0.31184 -1.78261,0.31481 -1.68659,0.007 -2.4101,0.3037 -2.4101,0.98823 0,0.81226 -0.82115,3.03243 -1.23284,3.33329 -0.19506,0.14255 -1.12593,0.26161 -2.0686,0.26458 -1.69441,0.005 -1.71116,-0.006 -1.47056,-0.96473 z m 41.81367,-21.73139 c 0,-0.26208 -0.17026,-0.96493 -0.37836,-1.56188 -0.2081,-0.59695 -0.50692,-1.85095 -0.66406,-2.78667 l -0.28571,-1.70131 -0.0415,2.36043 c -0.0228,1.29823 -0.20024,2.45854 -0.39427,2.57846 -0.58708,0.36283 -0.39844,0.88632 0.44097,1.22373 1.11516,0.44823 1.32292,0.43053 1.32292,-0.11276 z m -36.33612,22.34875 c 0,-0.19403 0.14939,-0.35278 0.33196,-0.35278 0.18258,0 0.43007,0.15875 0.54999,0.35278 0.11991,0.19403 -0.0295,0.35278 -0.33196,0.35278 -0.30249,0 -0.54999,-0.15875 -0.54999,-0.35278 z m 7.40834,-0.75486 c 0,-0.64118 0.25999,-1.305 0.61736,-1.57628 0.56628,-0.42987 0.54439,-0.47046 -0.26458,-0.49059 -0.77065,-0.0192 -0.80404,-0.0673 -0.26459,-0.38153 0.85784,-0.49965 0.77114,-1.02326 -0.17639,-1.06524 -0.76149,-0.0337 -0.75791,-0.0466 0.0882,-0.31761 0.84225,-0.26974 0.83128,-0.28403 -0.24377,-0.31762 -0.61914,-0.0193 -1.23898,-0.21844 -1.37742,-0.44245 -0.15596,-0.25234 -0.0968,-0.31152 0.15557,-0.15556 0.22401,0.13844 0.40728,0.0836 0.40728,-0.12189 0,-0.20547 -0.23812,-0.37359 -0.52916,-0.37359 -0.96159,0 -0.54931,-0.70456 0.44097,-0.7536 0.8318,-0.0412 0.85695,-0.0698 0.17639,-0.20093 -0.97714,-0.1882 -1.05333,-0.80936 -0.0993,-0.80936 0.47239,0 0.62955,-0.16923 0.49143,-0.52917 -0.14282,-0.37217 0.0286,-0.52917 0.57798,-0.52917 0.57985,0 0.72369,0.14946 0.5584,0.58019 -0.12245,0.3191 0.005,0.83504 0.28222,1.14653 0.60236,0.67573 1.12717,2.64129 1.44634,5.41703 l 0.23325,2.02848 h -1.26011 c -1.17739,0 -1.2601,-0.0727 -1.2601,-1.10764 z m 4.60116,0.0856 c -0.68784,-1.66057 -0.29356,-1.90454 0.90571,-0.56043 0.60343,0.67632 0.9736,1.22967 0.8226,1.22967 -0.151,0 -0.50296,0.0876 -0.78214,0.19478 -0.32986,0.12658 -0.66117,-0.17596 -0.94617,-0.86402 z m 8.58778,0.52171 c 0.17228,-0.48574 -0.0868,-1.02296 -0.91822,-1.90379 l -1.15822,-1.2271 1.14298,0.82099 c 1.3101,0.94102 1.7717,1.99241 1.1332,2.58113 -0.3431,0.31635 -0.387,0.25674 -0.19974,-0.27123 z m 1.67905,0.12289 c -0.54105,-0.2167 -0.75865,-0.52023 -0.62419,-0.87065 0.12726,-0.33163 -0.23069,-0.94934 -0.93326,-1.61052 -0.74876,-0.70464 -0.98844,-1.13447 -0.69873,-1.25305 0.72211,-0.29557 0.50208,-0.64731 -0.43889,-0.70159 -0.48365,-0.0279 -0.79167,0.0912 -0.68449,0.26458 0.26013,0.4209 -0.0914,0.39799 -0.95084,-0.0619 -0.50674,-0.2712 -0.83954,-0.26554 -1.18378,0.0202 -0.384,0.3187 -0.44004,0.249 -0.28291,-0.35187 0.1475,-0.56405 -0.17565,-1.09579 -1.30718,-2.15092 -0.82672,-0.7709 -1.4042,-1.50056 -1.2833,-1.62146 0.1209,-0.1209 -0.25254,-0.50708 -0.82988,-0.85818 -0.64715,-0.39356 -0.9751,-0.83278 -0.85516,-1.14533 0.19995,-0.52108 -0.11218,-0.67309 -2.28181,-1.11124 -0.79316,-0.16017 -1.28048,-0.095 -1.45987,0.19525 -0.33662,0.54465 -1.0537,0.13801 -1.0537,-0.59754 0,-0.44841 0.28375,-0.50585 1.55622,-0.31504 1.58816,0.23816 2.68238,-0.32543 1.18379,-0.60973 -0.43986,-0.0834 -0.0854,-0.0852 0.78777,-0.004 2.10669,0.19613 2.87565,0.4413 2.63013,0.83856 -0.11128,0.18006 0.0603,0.32738 0.38139,0.32738 0.94413,0 2.53573,1.32863 2.78597,2.32565 0.22697,0.90432 0.25322,0.88888 1.3426,-0.78984 1.25967,-1.94114 6.37776,-7.18025 7.01439,-7.18025 0.24414,0 0.13851,0.31434 -0.25328,0.75381 l -0.67204,0.75382 1.13706,-0.58159 c 0.85082,-0.43518 1.09165,-0.46329 0.95672,-0.11164 -0.13616,0.35481 0.83841,0.62719 3.97822,1.11186 4.59482,0.70926 7.01392,1.27316 13.391418,3.12155 6.856624,1.98727 9.640753,2.11424 9.640753,0.43967 0,-0.99765 -0.388468,-1.30857 -2.645833,-2.11763 -0.970139,-0.34771 -4.084987,-1.72442 -6.921884,-3.05936 -3.10654,-1.46182 -5.632084,-2.4322 -6.350004,-2.43985 l -1.192,-0.0127 1.04447,-0.85358 1.04448,-0.85359 -0.42711,-2.30873 c -0.23492,-1.26979 -0.61201,-3.30499 -0.838,-4.52266 -0.47178,-2.54209 -0.23745,-3.9029 0.82057,-4.76515 2.755158,-2.24538 2.525299,-1.71719 2.696774,-6.19692 0.10251,-2.67811 -0.0056,-4.84111 -0.310593,-6.21603 -0.45944,-2.07096 -0.479418,-2.09623 -1.116418,-1.41249 -0.807603,0.86686 -1.402873,0.88097 -2.153943,0.0511 -0.64028,-0.7075 -0.79172,-2.71252 -0.23106,-3.05903 0.20951,-0.12949 0.35277,0.28338 0.35277,1.01669 0,1.63254 0.65054,1.99242 0.94452,0.52251 0.1962,-0.98097 0.27098,-1.05039 0.500232,-0.46435 0.258473,0.66072 0.27057,0.65867 0.294344,-0.05 0.01365,-0.40648 -0.625906,-1.74582 -1.421216,-2.97631 l -1.44601,-2.23726 0.64585,-1.90007 c 0.64455,-1.89623 0.64711,-1.89851 1.26962,-1.12974 0.797789,0.98522 0.786585,0.57027 -0.0503,-1.86211 -0.92509,-2.68882 -1.57415,-6.972412 -1.3048,-8.611158 0.33326,-2.0275 0.25558,-3.21304 -0.29255,-4.46492 -0.46301,-1.05751 -0.49568,-0.88863 -0.53276,2.75396 -0.0313,3.078556 -0.12226,3.737886 -0.4399,3.190256 -0.45098,-0.7775 0.20777,-12.544046 0.81272,-14.516906 0.32924,-1.07368 2.813338,-3.40115 3.781734,-3.54328 0.904882,-0.13281 2.266086,-1.69591 3.102529,-3.56271 0.45642,-1.01864 0.916817,-1.85208 1.023101,-1.85208 0.106289,0 0.02893,0.30706 -0.17194,0.68236 -0.627436,1.17238 -0.430318,1.15248 1.98973,-0.20089 1.756992,-0.98256 2.943829,-1.37731 4.674306,-1.55468 l 2.319387,-0.23772 -2.22238,-0.0501 c -1.380342,-0.0311 -2.650152,0.15689 -3.351389,0.49616 -1.060002,0.51286 -1.085885,0.51043 -0.423453,-0.0397 1.260002,-1.04644 3.479782,-1.83582 5.746072,-2.04335 1.220061,-0.11173 2.137336,-0.0722 2.038393,0.0879 -0.09895,0.1601 0.942019,0.39536 2.313255,0.52281 2.947473,0.27394 3.645087,0.59445 4.560115,2.09513 0.460799,0.75573 0.685793,0.92173 0.686679,0.50665 0.0014,-0.68752 0.536215,-0.82612 0.902261,-0.23385 0.13036,0.21093 0.53644,0.30521 0.90241,0.20951 0.36596,-0.0957 0.74136,-0.0511 0.83421,0.0992 0.0928,0.15024 0.96319,0.37853 1.93407,0.50733 1.15724,0.15351 2.10166,0.54051 2.74195,1.12358 l 0.9767,0.88942 -1.12901,-0.54792 c -1.42608,-0.69209 -3.46883,-0.69919 -5.39738,-0.0187 -1.532918,0.54084 -4.085918,0.69896 -5.086427,0.31503 -0.306913,-0.11777 -0.558021,-0.52402 -0.558021,-0.90276 0,-0.37875 0.15875,-0.59052 0.352778,-0.47061 0.733069,0.45306 0.309721,-0.46048 -0.79375,-1.71283 -1.117438,-1.2682 -1.186808,-1.29305 -2.734028,-0.97937 -1.363302,0.27639 -1.431311,0.3273 -0.481545,0.36049 0.990621,0.0346 2.245434,1.15629 2.245434,2.00717 0,0.1262 -0.912812,0.14012 -2.028472,0.031 l -2.028472,-0.1985 1.411111,0.48352 c 2.162771,0.74107 2.998611,0.67746 2.998611,-0.22823 0,-0.42129 -0.262728,-1.05629 -0.583844,-1.41111 -0.321112,-0.35483 -0.418747,-0.64514 -0.216962,-0.64514 0.51736,0 1.556841,1.67873 1.485029,2.39828 -0.117951,1.18186 0.03574,1.47161 1.062147,2.00238 1.485854,0.76836 2.820853,0.66935 5.110931,-0.37908 3.19228,-1.46148 5.77497,-0.52623 7.51417,2.72104 0.5359,1.00059 1.64905,2.59688 2.47367,3.54731 0.82462,0.95044 1.4993,2.02042 1.4993,2.37775 0,0.35732 0.10416,1.17046 0.23146,1.80696 0.16627,0.83137 0.1166,1.0863 -0.17639,0.90522 -0.22432,-0.13863 -0.40784,-0.61588 -0.40784,-1.06054 0,-1.34129 -0.73507,-3.0214 -1.50131,-3.43149 -0.66834,-0.35768 -0.65962,-0.29918 0.11835,0.79337 0.96819,1.35971 1.0896,3.37542 0.31148,5.17144 -0.40416,0.93285 -0.41572,1.28896 -0.0603,1.85805 0.35395,0.56676 0.33628,1.39541 -0.0906,4.25043 -0.29165,1.950536 -0.62154,3.694098 -0.73309,3.874598 -0.28004,0.45311 0.0694,0.41046 0.90315,-0.11023 0.51967,-0.324542 0.86202,-0.337582 1.31814,-0.0502 0.54456,0.34311 0.61974,1.08047 0.64717,6.34742 0.0171,3.27757 -0.0319,5.28091 -0.10887,4.45188 -0.0769,-0.82905 -0.28394,-1.41833 -0.45998,-1.30953 -0.18639,0.11519 -0.23708,-0.72874 -0.12136,-2.02044 0.22191,-2.4771 -0.31625,-4.55893 -1.00139,-3.87378 -0.29766,0.29765 -0.27921,0.76453 0.0723,1.82963 0.43762,1.32602 0.4035,1.59665 -0.46921,3.72174 -0.51763,1.26046 -0.91953,2.72517 -0.89311,3.2549 0.0419,0.83944 0.0678,0.86053 0.20162,0.16417 0.21872,-1.13799 0.80765,-0.60873 0.81408,0.73161 0.008,1.66792 0.67641,0.44943 0.73712,-1.34374 l 0.0478,-1.41111 0.36577,1.52413 c 0.33959,1.41503 0.29964,1.59025 -0.55815,2.44804 -0.90322,0.90322 -0.94004,0.90932 -1.64371,0.27251 -0.71685,-0.64874 -0.71905,-0.64434 -0.53905,1.07974 l 0.18075,1.73114 -0.49568,-1.41111 -0.49568,-1.41111 -0.037,2.48167 c -0.0222,1.48624 -0.3195,3.28546 -0.74131,4.48558 -0.72053,2.05003 -1.40588,8.64607 -1.05815,10.18394 0.13347,0.5903 0.81348,1.15549 2.28453,1.89881 2.564,1.29557 3.37592,2.55638 3.62223,5.62482 0.20952,2.61018 -0.20487,6.06328 -0.59815,4.9843 -0.21721,-0.59595 -0.27513,-0.60845 -0.46969,-0.10142 -0.12206,0.31808 -1.14201,1.04318 -2.26655,1.61132 -1.12454,0.56815 -2.32565,1.34422 -2.66913,1.7246 -0.61611,0.68231 -0.58768,0.6894 2.11667,0.52719 1.50764,-0.0904 2.88413,-0.29706 3.05886,-0.45919 0.17472,-0.16212 0.86594,-0.0657 1.53602,0.21428 0.99656,0.41639 1.18506,0.42233 1.03551,0.0326 -0.15176,-0.3955 0.15754,-0.40543 1.82026,-0.0585 1.10169,0.22991 2.55651,0.35941 3.23291,0.2878 0.81729,-0.0865 1.62778,0.11785 2.41615,0.60929 0.65247,0.40672 1.12872,0.78928 1.05833,0.85012 -0.0704,0.0608 -5.12168,0.21734 -11.22509,0.34778 -6.10342,0.13043 -11.17019,0.31022 -11.2595,0.39953 -0.25071,0.25072 -0.14529,0.29169 4.42127,1.71874 l 4.28966,1.34051 8.41034,0.0509 c 4.62569,0.028 9.41005,-0.0769 10.63192,-0.23312 2.20502,-0.28188 2.22981,-0.27531 3.32564,0.88194 0.65345,0.69007 1.00597,0.9006 0.86372,0.51581 -0.13218,-0.35758 -0.32985,-1.07195 -0.43926,-1.5875 -0.18813,-0.88656 -0.16978,-0.90142 0.33847,-0.27421 0.57955,0.71519 0.64497,4.18767 0.0722,3.83385 -0.17623,-0.10886 -5.57373,-0.30464 -11.99445,-0.43507 -11.58497,-0.23532 -11.69019,-0.2442 -13.7907,-1.16372 -1.16417,-0.50962 -2.83104,-1.10817 -3.70417,-1.33009 -0.87312,-0.22192 -2.0225,-0.65916 -2.55418,-0.97164 -1.377097,-0.80935 -1.771454,-0.25486 -2.283264,3.21037 -0.878674,5.94913 -1.344796,7.82681 -1.972987,7.94778 -0.499392,0.0962 -0.597902,-0.18355 -0.597902,-1.6978 0,-0.99712 0.177218,-2.14408 0.393817,-2.5488 0.335421,-0.62674 0.306546,-0.70237 -0.194709,-0.51002 -0.346308,0.13289 -0.499823,0.0823 -0.372999,-0.12289 0.11854,-0.19181 0.01707,-0.34874 -0.225492,-0.34874 -0.242563,0 -0.13287,-0.23308 0.243762,-0.51795 0.376633,-0.28487 0.526038,-0.52284 0.33201,-0.52882 -0.219047,-0.007 -0.307245,-1.33449 -0.232664,-3.50255 0.06982,-2.02959 -0.0365,-3.7843 -0.253891,-4.19051 -0.509608,-0.9522 -2.201756,-1.26881 -2.776639,-0.51952 -0.398816,0.51981 -0.441488,0.50929 -0.446374,-0.11003 -0.0045,-0.5713 -0.06208,-0.59709 -0.347376,-0.15562 -0.437307,0.67669 -0.448092,6.71136 -0.01323,7.39902 0.214306,0.33888 0.18928,0.60606 -0.07189,0.76747 -0.231178,0.14288 -0.465377,1.60166 -0.553695,3.44889 -0.115224,2.41001 -0.273184,3.20129 -0.639071,3.20129 -0.336289,0 -0.486622,-0.4619 -0.487983,-1.49931 -0.0032,-2.29629 -0.616148,-4.00884 -1.788411,-4.99524 -1.497951,-1.26044 -10.880104,-4.22517 -15.672122,-4.95235 -2.13431,-0.32387 -4.91243,-0.80739 -6.17361,-1.07449 -1.26118,-0.2671 -2.80717,-0.58752 -3.43554,-0.71205 -0.62836,-0.12452 -1.23305,-0.37294 -1.34374,-0.55204 -0.11067,-0.1791 -0.79465,-0.32564 -1.51993,-0.32564 -1.06332,0 -1.56415,0.2562 -2.58615,1.32292 -1.6338,1.70531 -2.64556,3.61597 -1.91477,3.61597 0.5849,0 2.18124,1.78684 2.50353,2.80228 0.19452,0.61288 1.11327,1.16669 2.123,1.2797 0.83619,0.0936 2.51723,0.57261 3.08202,0.87822 0.33691,0.18231 0.86043,0.33147 1.16337,0.33147 0.30294,0 0.90041,0.37481 1.3277,0.83292 0.4273,0.4581 1.17378,0.95676 1.65885,1.10814 0.48507,0.15137 1.43474,0.64969 2.11037,1.10736 l 1.22842,0.83214 -2.63954,-0.0464 c -1.96671,-0.0346 -2.32479,-0.10595 -1.4048,-0.27991 l 1.23472,-0.23346 -2.11667,-0.63843 c -1.16416,-0.35113 -2.41067,-0.69543 -2.77002,-0.7651 -0.35934,-0.0697 -0.88201,-0.31645 -1.16148,-0.54839 -0.35795,-0.29707 -0.61865,-0.31118 -0.8821,-0.0477 -0.26345,0.26345 -0.57181,0.20458 -1.04338,-0.19919 -1.16024,-0.99343 -0.73324,-1.14329 1.18268,-0.41509 1.01864,0.38716 2.40771,0.69865 3.0868,0.6922 0.99786,-0.009 0.62836,-0.21426 -1.92616,-1.06747 -3.14686,-1.05106 -4.45942,-1.13762 -3.75384,-0.24758 0.19411,0.24486 0.91652,1.09944 1.60535,1.89906 0.68884,0.79963 1.25243,1.55369 1.25243,1.6757 0,0.31666 -1.09159,0.23443 -2.06534,-0.15559 z m 1.53618,-0.32814 c -0.11992,-0.19403 -0.4071,-0.35035 -0.63818,-0.34738 -0.25246,0.003 -0.20895,0.1419 0.10901,0.34738 0.67773,0.43798 0.79985,0.43798 0.52917,0 z m -3.35139,-5.25392 c 0,-0.17327 -0.26058,-0.41503 -0.57907,-0.53724 -0.48418,-0.1858 -0.506,-0.13418 -0.13319,0.31503 0.50804,0.61215 0.71226,0.67587 0.71226,0.22221 z m -0.52917,-1.44886 c 0.11992,-0.19403 0.0499,-0.35278 -0.15557,-0.35278 -0.20548,0 -0.3736,0.15875 -0.3736,0.35278 0,0.19403 0.07,0.35278 0.15557,0.35278 0.0856,0 0.25368,-0.15875 0.3736,-0.35278 z m 74.23033,-2.25951 c -0.21644,-0.21034 -1.10618,-0.30593 -1.91088,-0.20529 -0.42545,0.0532 -0.21537,0.18127 0.52916,0.32256 1.18899,0.22564 1.69074,0.18305 1.38172,-0.11727 z m -27.45762,-7.11957 c 1.61579,-0.51043 3.25638,-1.28322 3.7303,-1.75713 1.27074,-1.27074 2.23727,-3.84115 2.23727,-5.94983 0,-1.9152 -0.89086,-3.61352 -2.77058,-5.28183 -0.59129,-0.52479 -0.76634,-1.10451 -0.79894,-2.64583 -0.023,-1.08559 -0.14202,-2.43178 -0.26458,-2.99153 l -0.22285,-1.01772 -1.67559,2.13434 c -0.92158,1.17388 -2.68113,3.01714 -3.91011,4.09612 -1.228978,1.07899 -2.982191,2.91348 -3.896027,4.07664 l -1.661516,2.11485 1.514679,-0.51585 c 1.355764,-0.46172 1.4418,-0.45989 0.820025,0.0174 -1.793871,1.37715 -5.962696,1.51928 -8.99341,0.30664 -2.231146,-0.89273 -1.46886,-0.95293 1.556537,-0.12293 3.115765,0.8548 3.838977,0.68413 1.568369,-0.37012 l -1.55073,-0.72 1.330822,0.16257 c 1.698192,0.20744 1.457491,-0.14926 -1.183181,-1.75338 -2.174349,-1.32085 -2.682173,-2.07789 -0.709591,-1.05783 1.835245,0.94905 1.212437,0.31454 -0.848889,-0.86483 -3.504562,-2.00511 -8.356502,-7.19466 -9.152852,-9.78974 -0.429373,-1.39921 -0.901322,-0.85046 -0.910212,1.05833 -0.0047,1.01865 -0.180432,2.56646 -0.390416,3.43959 -0.682512,2.83788 -0.50504,7.01772 0.377109,8.88166 1.588516,3.35645 5.011505,5.77886 12.369154,8.75352 2.537866,1.02604 2.807124,1.06231 6.598363,0.88885 2.876843,-0.13163 4.737496,-0.42882 6.836846,-1.092 z m -11.142153,0.55964 c -0.68024,-0.29231 -0.67782,-0.30408 0.06737,-0.32798 0.425111,-0.0137 0.871043,0.13395 0.990959,0.32798 0.257881,0.41726 -0.08732,0.41726 -1.058333,0 z m -0.440972,-2.18576 c -1.661471,-0.8195 -0.390642,-1.54565 1.713473,-0.97907 1.289382,0.3472 1.904912,1.04235 0.93236,1.05298 -0.242535,0.003 -0.758472,0.0752 -1.146528,0.16121 -0.388055,0.086 -1.062743,-0.0198 -1.499305,-0.23512 z m 12.113955,-3.39813 c -0.30684,-0.59337 -0.42852,-1.15881 -0.2704,-1.25653 0.15812,-0.0977 0.58545,-1.69307 0.94962,-3.54522 0.74619,-3.79504 1.22054,-3.80336 1.21592,-0.0213 -0.005,4.47346 -0.89942,6.74856 -1.89514,4.82305 z m -4.08826,0.12855 c 0,-0.20567 2.55451,-1.953 2.85519,-1.953 0.35008,0 -0.0757,1.74868 -0.48782,2.00337 -0.2298,0.14202 -0.28502,0.006 -0.14534,-0.358 0.27824,-0.72508 -0.10596,-0.75141 -1.00808,-0.0691 -0.68656,0.51928 -1.21395,0.68294 -1.21395,0.37671 z m -19.361856,-3.95261 c -0.02251,-0.22667 -0.143662,-0.70292 -0.269233,-1.05834 -0.177144,-0.50139 -0.1302,-0.55578 0.209472,-0.24271 0.240781,0.22192 0.361936,0.69817 0.269233,1.05833 -0.0927,0.36016 -0.186965,0.46938 -0.209472,0.24272 z m -1.411246,-1.5628 c -0.216461,-0.62094 -0.37787,-1.38311 -0.358686,-1.6937 0.01919,-0.3106 0.255432,0.1383 0.525,0.99755 0.564533,1.79946 0.423739,2.38878 -0.166314,0.69615 z m 1.375724,-3.40495 c 0.0039,-0.70604 0.09108,-0.83479 0.320139,-0.47296 0.173105,0.27345 0.233066,0.71001 0.133244,0.97014 -0.286265,0.74599 -0.459249,0.5563 -0.453383,-0.49718 z m -1.360812,-1.14652 c 0,-0.6791 0.08816,-0.9966 0.195908,-0.70556 0.107749,0.29104 0.373028,0.75808 0.58951,1.03786 0.293786,0.37968 0.289412,0.44622 -0.01725,0.26238 -0.225961,-0.13547 -0.491243,-0.0469 -0.589509,0.19687 -0.09826,0.24374 -0.178658,-0.11246 -0.178659,-0.79155 z m 2.088819,0.48705 c -0.01532,-0.21719 -0.662852,-1.19242 -1.438963,-2.16717 -0.776111,-0.97476 -1.404458,-2.06705 -1.396323,-2.42733 0.01087,-0.48183 0.174138,-0.36902 0.617361,0.42657 0.331414,0.59489 1.054072,1.66133 1.605905,2.36987 0.551829,0.70854 0.92155,1.4918 0.821598,1.7406 -0.107012,0.26637 -0.193178,0.29 -0.209578,0.0575 z m -6.003555,4.981 c -0.870644,-2.6742 -0.919634,-2.17078 -0.114724,1.17893 0.345889,1.43943 0.662683,2.22302 0.713113,1.76389 0.04991,-0.45438 -0.219368,-1.77865 -0.598389,-2.94282 z m 1.536732,0.26458 c -0.130687,-0.7276 -0.387992,-1.56104 -0.571789,-1.85208 -0.265811,-0.4209 -0.292644,-0.39696 -0.131156,0.11705 0.111665,0.35542 0.203027,1.18885 0.203027,1.85208 0,0.66323 0.165943,1.20587 0.368762,1.20587 0.233183,0 0.281404,-0.48638 0.131156,-1.32292 z m 12.431148,-4.96666 c -0.867403,-0.95847 -0.706529,-1.26646 0.263119,-0.50374 0.756578,0.59513 1.161278,0.63373 3.792362,0.36173 4.389423,-0.45376 5.499181,-0.84759 7.315775,-2.59624 0.89476,-0.8613 1.37153,-1.47592 1.05949,-1.36581 -0.48669,0.17173 -0.54542,-0.0658 -0.41302,-1.67044 0.21733,-2.63385 0.22609,-2.64446 1.0811,-1.30869 0.42313,0.66107 0.77201,1.04107 0.77527,0.84445 0.012,-0.7199 -2.50038,-4.05368 -3.09023,-4.10059 -1.238123,-0.0985 -2.074329,-0.0198 -4.352847,0.40947 -2.703851,0.50942 -6.006497,0.32936 -6.853576,-0.37365 -0.353512,-0.29339 -1.449621,-0.49305 -2.755413,-0.50191 l -2.168374,-0.0147 -0.109128,-1.31684 c -0.06002,-0.72426 0.05421,-1.59738 0.253855,-1.94027 0.319995,-0.54961 0.366903,-0.51899 0.396075,0.2585 l 0.03309,0.88194 0.333947,-0.83401 c 0.269589,-0.6733 0.431154,-0.75334 0.838404,-0.41536 0.277453,0.23027 0.557446,0.76432 0.622209,1.1868 0.07279,0.47486 0.316579,0.71463 0.638538,0.628 0.286434,-0.0771 2.822667,-0.21199 5.636069,-0.29983 3.941008,-0.12304 5.459462,-0.0396 6.614584,0.36345 0.824617,0.28773 1.499307,0.43764 1.499307,0.33313 0,-0.10451 -0.41291,-0.73137 -0.91757,-1.39302 -1.029285,-1.34946 -0.945776,-1.79037 0.207,-1.09291 0.85141,0.51514 2.11914,2.72988 2.12622,3.71456 0.002,0.34728 0.37576,1.42516 0.82949,2.3953 l 0.82494,1.76389 0.28036,-2.29305 c 0.1542,-1.26118 0.35012,-2.09363 0.43537,-1.84989 0.30188,0.8631 0.8003,0.0249 0.8003,-1.34593 0,-0.76466 0.14304,-1.39029 0.31786,-1.39029 0.17483,0 0.30159,-0.57406 0.2817,-1.27568 -0.0221,-0.77758 0.17669,-1.43187 0.50897,-1.67569 0.77131,-0.56599 1.14919,-2.69249 1.16815,-6.57363 0.013,-2.66059 0.11686,-3.33001 0.50389,-3.24768 0.4035,0.0858 0.44123,-0.52216 0.21894,-3.52778 -0.61373,-8.298328 -0.82598,-10.057178 -1.39508,-11.560808 -0.62564,-1.65299 -0.59791,-2.0736 0.29519,-4.47706 0.49017,-1.3191 0.49145,-1.6818 0.0125,-3.52777 -0.29362,-1.13164 -0.73342,-2.25881 -0.97733,-2.50483 -0.24391,-0.24602 -1.76441,-0.69645 -3.37889,-1.00095 -2.29128,-0.43216 -3.269701,-0.46947 -4.458805,-0.17005 -0.837886,0.21097 -2.243071,0.38359 -3.122655,0.38359 -1.488673,0 -1.647532,-0.0915 -2.297635,-1.32291 -0.817104,-1.54779 -0.963947,-0.97924 -0.211934,0.82057 0.684583,1.63844 0.139223,1.86079 -2.159015,0.88023 -1.713903,-0.73124 -5.108165,-1.50705 -5.384507,-1.23071 -0.175828,0.17583 -0.282176,0.10852 1.904944,1.2056 1.216212,0.61006 2.004166,1.31695 2.556012,2.29306 0.438782,0.77611 0.957266,1.37142 1.152187,1.32291 0.194924,-0.0485 0.314716,0.10142 0.266209,0.33317 -0.04851,0.23175 0.388056,0.51095 0.970139,0.62044 0.960843,0.18075 1.066109,0.33731 1.142746,1.69958 0.106504,1.89311 1.33271,4.30477 3.427162,6.74041 0.897231,1.04339 1.560248,1.96814 1.47338,2.05501 -0.21076,0.21076 -8.689121,-4.2227 -8.689121,-4.54367 0,-0.31204 2.821873,0.90717 4.93419,2.13187 l 1.582797,0.91768 -0.846409,-1.40537 c -0.465525,-0.77295 -1.222527,-2.06481 -1.682221,-2.87079 -0.459694,-0.80599 -1.068881,-1.65886 -1.353749,-1.89528 -1.060006,-0.87973 -0.539376,0.98552 0.744587,2.6676 0.904469,1.18492 1.040147,1.49824 0.478405,1.10479 -1.864039,-1.30563 -2.739055,-4.19943 -1.564545,-5.17419 0.882361,-0.73229 0.591408,-1.13726 -0.328658,-0.45744 -1.579894,1.16736 -2.028962,2.93934 -1.025818,4.0478 0.904597,0.99957 0.321635,1.13556 -0.785505,0.18324 -0.88168,-0.75839 -1.014095,-1.16384 -1.244431,-3.81045 -0.141771,-1.62897 -0.380714,-3.43801 -0.530987,-4.02009 l -0.273223,-1.05834 -0.300842,1.23473 c -0.40374,1.65704 -0.320886,5.60141 0.135576,6.45432 0.263285,0.49196 0.25744,0.61846 -0.02064,0.4466 -0.740435,-0.45762 -0.383163,0.54429 0.514015,1.44147 0.496093,0.49609 0.694531,0.83383 0.440972,0.75052 -0.253559,-0.0833 -0.833603,-0.69486 -1.288987,-1.359 -0.724958,-1.05729 -0.807296,-1.5084 -0.661811,-3.62587 0.09139,-1.33009 0.06354,-2.25231 -0.06188,-2.04937 -0.125419,0.20294 -0.224483,-0.52858 -0.220133,-1.62558 0.0074,-1.86464 -0.06589,-2.04135 -1.125037,-2.71313 -1.342432,-0.85145 -1.402517,-1.27465 -0.421668,-2.96999 l 0.738449,-1.27636 -0.912319,0.98688 c -1.377753,1.49036 -1.471486,2.47073 -0.525237,5.49358 0.549882,1.75664 0.882177,2.41287 0.956518,1.88896 0.06265,-0.44154 -0.1587,-1.51664 -0.491902,-2.38911 -0.742975,-1.94545 -0.494055,-2.29831 0.746308,-1.05795 0.860333,0.86033 0.915829,1.08089 0.65296,2.59505 -0.314138,1.80949 -0.31829,3.02935 -0.02124,6.24092 0.262717,2.84037 -0.259934,1.80005 -0.953269,-1.89745 -0.518139,-2.7632 -1.435774,-4.94503 -1.889118,-4.49168 -0.10916,0.10916 0.01062,0.4504 0.266149,0.75831 0.452837,0.54563 1.841123,6.18905 1.585415,6.44475 -0.303089,0.30309 -0.94284,-1.50648 -1.133182,-3.20528 -0.215999,-1.9278 -0.984222,-3.63583 -1.771099,-3.93779 -0.257715,-0.0989 -0.13703,0.26319 0.272221,0.81673 0.404346,0.54691 0.813117,1.69344 0.908378,2.54784 0.09526,0.8544 0.505565,2.30352 0.911782,3.22027 0.685546,1.54713 0.962367,1.7751 3.855396,3.175 1.714249,0.8295 3.117737,1.62725 3.118859,1.77277 0.0036,0.46979 -1.581486,0.28096 -2.388909,-0.28458 -1.458246,-1.0214 -0.795878,-0.19774 0.854177,1.06217 1.721478,1.314446 1.794252,1.591646 0.196335,0.747836 -2.528387,-1.335156 -7.086463,-7.065026 -7.118484,-8.948506 -0.0043,-0.25065 -0.336818,-0.80627 -0.739017,-1.23472 l -0.731273,-0.779 0.251732,1.05833 c 0.358937,1.50906 -0.02148,1.00935 -0.86935,-1.1419 -0.568325,-1.442 -0.649761,-2.05355 -0.371077,-2.78655 0.313133,-0.8236 0.29058,-0.88393 -0.183363,-0.4906 -0.892546,0.74075 -0.61256,2.14603 1.041294,5.22639 1.480312,2.75713 1.504858,3.11572 0.132909,1.94176 -0.520806,-0.44564 -0.592494,-0.34772 -0.71936,0.9826 -0.101734,1.06679 0.04168,1.7097 0.51586,2.31252 0.361224,0.45922 0.526186,0.83386 0.366582,0.83254 -0.159604,-10e-4 -0.686699,-0.58448 -1.171321,-1.29589 -0.751734,-1.10352 -0.881253,-1.69368 -0.881944,-4.01864 -3.53e-4,-1.49885 -0.119874,-2.65258 -0.265395,-2.56385 -0.5533,0.33735 -0.254617,4.87 0.418624,6.35278 0.367241,0.80884 0.579861,1.55846 0.472493,1.66583 -0.107372,0.10737 0.19051,0.34187 0.661955,0.52111 0.918076,0.34905 2.023516,1.45773 1.45347,1.45773 -0.622378,0 -3.443006,-2.23576 -3.004877,-2.3818 0.317101,-0.1057 0.274486,-0.43445 -0.163565,-1.26182 -0.405674,-0.76621 -0.588564,-1.94557 -0.580246,-3.74164 0.0086,-1.84681 -0.07733,-2.38088 -0.290283,-1.8052 -0.166338,0.44965 -0.339436,2.62942 -0.384655,4.84393 -0.07771,3.80548 -0.109311,3.96258 -0.576019,2.86354 -0.563435,-1.32683 -0.963697,-5.51113 -0.414948,-4.33784 0.181494,0.38806 0.341147,0.52696 0.354782,0.30868 0.01365,-0.21828 0.125434,-0.90005 0.248433,-1.51505 0.169496,-0.84748 0.105442,-1.09302 -0.264583,-1.01424 -0.299378,0.0637 -0.529678,-0.25349 -0.595404,-0.82014 -0.08625,-0.74361 0.146364,-1.07369 1.190992,-1.69003 1.61157,-0.95086 1.385972,-1.3707 -0.247739,-0.46105 -1.161362,0.64665 -1.195997,0.73318 -1.49818,3.74296 -0.25022,2.49219 -0.205073,3.34641 0.236206,4.4698 0.553582,1.40928 0.405709,1.74709 -0.414898,0.94782 -0.249008,-0.24253 -0.04264,0.33674 0.458611,1.28727 0.501248,0.95053 0.9002,2.061776 0.886562,2.469436 -0.02434,0.72769 -0.03059,0.72834 -0.342272,0.0357 -0.208439,-0.46322 -0.254155,0.082 -0.133107,1.5875 0.174728,2.173102 0.156069,2.246922 -0.356697,1.411112 -0.508208,-0.82838 -0.529152,-0.72126 -0.344918,1.76389 0.469396,6.3316 2.378425,16.11964 2.9603,15.17815 0.300023,-0.48545 1.063533,1.38142 1.063992,2.60158 3.45e-4,0.92069 1.887117,4.96749 2.489658,5.33988 0.51132,0.31601 0.542156,0.43199 -1.222847,-4.59877 -1.455611,-4.14891 -1.44066,-4.05543 -0.649729,-4.06235 0.527597,-0.005 0.54042,-0.0551 0.08819,-0.34738 -0.372089,-0.24046 0.142772,-0.34357 1.734492,-0.34737 l 2.263655,-0.005 2.234261,-2.23426 c 2.39461,-2.39461 2.674289,-2.45997 1.47005,-0.34354 -1.138717,2.00127 -2.292505,3.12599 -3.935928,3.83678 -0.810411,0.35051 -1.778575,0.88532 -2.151475,1.18846 -0.501696,0.40784 -0.602192,0.42233 -0.386468,0.0557 0.196765,-0.3344 0.159138,-0.41365 -0.115746,-0.24376 -0.652258,0.40311 -0.473216,2.05691 0.426159,3.93641 0.458396,0.95795 1.053708,2.36492 1.322916,3.1266 l 0.489473,1.38488 0.176388,-1.26988 0.176389,-1.26988 0.817055,0.66597 c 0.618384,0.50404 0.787449,0.94787 0.6953,1.82528 l -0.121758,1.1593 -0.602562,-1.23472 -0.602562,-1.23472 0.211861,1.23472 c 0.274584,1.60028 1.839662,4.93889 2.315263,4.93889 0.202568,0 0.285316,-0.31734 0.183889,-0.7052 -0.101427,-0.38787 -0.04057,-0.79411 0.135244,-0.90277 0.175814,-0.10866 0.319659,0.11713 0.319659,0.50175 0,0.77309 1.60939,2.87011 2.202702,2.87011 0.206852,0 0.113365,-0.29031 -0.207747,-0.64514 z m 2.06199,-5.02497 c -0.986423,-0.41502 -4.044065,-3.26991 -3.175,-2.96448 1.598468,0.56178 2.118003,0.56203 1.146527,7.1e-4 -0.533576,-0.3084 -0.970138,-0.64061 -0.970138,-0.73825 0,-0.17168 0.378139,-0.008 2.657549,1.14687 0.898521,0.45544 1.472635,0.47992 3.58153,0.15271 1.381316,-0.21432 2.765104,-0.48699 3.07509,-0.60595 1.107299,-0.42491 0.537471,0.42407 -0.918118,1.36789 l -1.481727,0.96061 1.040755,0.0224 c 0.878515,0.0189 0.930768,0.0658 0.335198,0.30113 -1.139846,0.45036 -4.526241,0.67843 -5.291666,0.3564 z m 11.151696,-6.71631 c -0.21734,-0.62345 -0.33342,-1.19529 -0.25796,-1.27074 0.0755,-0.0755 0.31501,0.3729 0.53234,0.99635 0.21734,0.62345 0.33342,1.19529 0.25797,1.27074 -0.0755,0.0755 -0.31501,-0.3729 -0.53235,-0.99635 z m -12.019089,-2.52681 c -0.953981,-0.48275 -3.088432,-3.29715 -2.754118,-3.63147 0.115333,-0.11533 0.550749,-0.0272 0.967599,0.19593 1.136089,0.60801 5.631275,0.52285 7.209546,-0.1366 1.206081,-0.50393 1.329503,-0.67212 1.190124,-1.62177 -0.08553,-0.58274 -0.03164,-1.05953 0.119726,-1.05953 0.151377,0 1.195444,0.86734 2.320149,1.92742 1.380723,1.30138 1.846213,1.93159 1.433123,1.94027 -0.33649,0.007 -1.11069,-0.4329 -1.72046,-0.97773 l -1.108668,-0.99059 -2.349916,2.4017 c -2.501234,2.55636 -3.434835,2.89982 -5.307105,1.95237 z m 11.627119,-2.72566 c -0.38843,-0.25102 -0.13808,-0.34341 0.94128,-0.34738 0.80875,-0.003 1.76125,-0.1145 2.11667,-0.24784 0.56886,-0.21342 0.58825,-0.17118 0.16205,0.35278 -0.52887,0.65016 -2.37412,0.78909 -3.22,0.24244 z m -11.989048,-6.76578 c -0.0091,-2.18854 -0.677305,-2.53299 -4.396553,-2.26634 -1.756463,0.12594 -3.868903,0.32141 -4.694315,0.4344 -0.825408,0.11299 -1.777908,0.0916 -2.116666,-0.0475 -1.073073,-0.44071 3.955302,-1.93809 6.508351,-1.93809 2.197234,0 2.971066,-0.4457 1.430588,-0.82397 -2.766116,-0.67923 -4.489055,-0.66299 -5.867121,0.0553 -1.127192,0.58752 -1.472851,0.64068 -1.777679,0.27339 -1.459209,-1.75824 7.295808,-3.60303 9.873357,-2.08043 0.557975,0.3296 1.177781,1.06766 1.377347,1.64014 0.456971,1.31087 0.46337,4.82025 0.01005,5.52169 -0.255019,0.39461 -0.343348,0.19919 -0.347377,-0.76856 z m -7.963669,-0.80773 c -0.649936,-0.49158 -0.629147,-0.51851 0.408514,-0.52916 0.601316,-0.006 2.347566,-0.11098 3.880555,-0.2329 3.061794,-0.24352 3.272099,0.19038 0.426177,0.87927 -2.248934,0.54439 -3.894628,0.50348 -4.715246,-0.11721 z m 11.844772,-0.54038 c -0.70575,-2.97793 -3.18e-4,-5.01874 2.045956,-5.9189 1.753983,-0.77159 7.633399,-0.82672 8.884209,-0.0833 0.84356,0.50137 0.75913,0.53408 -1.94028,0.75172 -2.21959,0.17896 -6.879166,1.43454 -6.879166,1.85368 0,0.0442 1.627187,0.11164 3.615976,0.14996 4.50817,0.0869 5.55625,0.18126 5.55625,0.50041 0,0.62147 -1.59393,0.98255 -4.3373,0.98255 -4.454258,0 -6.109929,0.30118 -6.540307,1.18973 -0.199944,0.4128 -0.382344,0.67117 -0.405338,0.57416 z m 1.63788,-0.26164 c -0.290622,-0.47024 1.781422,-0.79056 5.058945,-0.78209 2.10177,0.005 2.50794,0.0869 1.97523,0.39623 -0.90279,0.52419 -6.750432,0.84497 -7.034175,0.38586 z m 7.976075,-3.51061 c 0.34325,-0.0894 0.8195,-0.0836 1.05834,0.0131 0.23884,0.0966 -0.042,0.16982 -0.62408,0.16263 -0.58208,-0.007 -0.7775,-0.0863 -0.43426,-0.1757 z m -0.0541,-6.492942 c -0.44202,-1.267996 -0.5368,-5.479636 -0.12898,-5.731706 0.14552,-0.0899 0.20968,0.52606 0.14257,1.3689 -0.0671,0.84284 0.0553,2.35898 0.2719,3.369196 0.452,2.10759 0.29425,2.65663 -0.28549,0.99361 z m -6.167489,-4.301956 c -1.910111,-2.23581 -3.751072,-5.61351 -3.751072,-6.88229 0,-1.30616 0.490541,-0.62787 1.422457,1.96691 1.098878,3.05967 1.326744,2.46324 0.299131,-0.78296 -0.769977,-2.43233 -0.918408,-2.65293 -1.788961,-2.65874 -1.210402,-0.008 -1.564012,-0.5182 -0.407346,-0.58765 0.909677,-0.0546 2.238608,-1.03503 2.238608,-1.65151 0,-0.19778 -0.367418,-0.0144 -0.816486,0.40745 -0.449069,0.42188 -1.166989,0.76705 -1.595381,0.76705 -0.786903,0 -3.938133,-2.61249 -3.938133,-3.26486 0,-0.19403 0.72644,0.31683 1.614315,1.13525 0.887871,0.81841 1.721061,1.38127 1.851529,1.2508 0.130468,-0.13046 -0.07069,-0.46236 -0.447019,-0.73753 -0.633581,-0.46329 -0.58131,-0.50095 0.70611,-0.50874 0.764688,-0.005 2.025343,-0.15848 2.801454,-0.34189 0.776111,-0.18341 1.688924,-0.2483 2.028472,-0.1442 0.774312,0.23739 0.798495,1.32131 0.04627,2.07354 -0.526277,0.52627 -0.621418,0.52555 -1.212289,-0.009 -0.606908,-0.54925 -0.65448,-0.50944 -0.889723,0.7445 -0.406534,2.16703 1.100201,6.95157 3.196883,10.15152 0.99372,1.51661 0.359237,1.08354 -1.358816,-0.92747 z m 1.099623,-0.29952 c -0.727604,-0.99174 -1.322917,-2.03854 -1.322917,-2.32621 0,-0.45437 1.737043,1.70914 2.828343,3.52274 0.81429,1.35325 -0.26286,0.49712 -1.505426,-1.19653 z m -20.656921,0.57917 c 0.0072,-0.58208 0.08625,-0.7775 0.175698,-0.43426 0.08944,0.34324 0.08356,0.81949 -0.01309,1.05833 -0.09662,0.23885 -0.169799,-0.042 -0.16261,-0.62407 z m 23.862117,-0.52917 c -0.12028,-0.29104 -0.53988,-1.95791 -0.93244,-3.70416 -0.44206,-1.96642 -0.72511,-2.73857 -0.7436,-2.02848 -0.0164,0.63059 -0.0775,1.14653 -0.1358,1.14653 -0.18148,0 -4.127384,-3.8855 -4.127384,-4.0642 0,-0.093 0.559029,-0.16913 1.242286,-0.16913 1.56743,0 2.228243,-1.11413 1.648019,-2.77856 -0.331738,-0.95162 -0.289659,-1.09609 0.381271,-1.30904 0.447965,-0.14218 0.808238,-0.0771 0.887358,0.16023 0.0733,0.21977 0.77084,0.39959 1.55018,0.39959 1.14111,0 1.65052,0.23353 2.61644,1.19944 0.6597,0.6597 1.18829,1.49314 1.17465,1.85209 -0.0304,0.80099 -0.62147,2.24439 -0.65596,1.60196 -0.0136,-0.25399 -0.18489,-0.36285 -0.38056,-0.24192 -0.19567,0.12093 -0.49167,-0.14752 -0.65777,-0.59654 -0.16611,-0.44903 -0.43916,-0.81642 -0.60679,-0.81642 -0.16762,0 -0.84259,-0.59531 -1.49994,-1.32292 -1.10969,-1.22829 -2.566842,-1.89536 -1.946034,-0.89088 0.146854,0.23762 0.378584,1.25419 0.514944,2.25905 0.13636,1.00486 0.66983,2.76713 1.18549,3.91617 0.72811,1.62245 0.9115,2.51665 0.82094,4.00276 -0.0641,1.05248 -0.21502,1.67547 -0.3353,1.38443 z m -3.249809,-1.95391 c -0.340423,-0.88713 -0.239998,-1.11604 0.175871,-0.40088 0.205913,0.3541 0.300073,0.71814 0.209243,0.80897 -0.09083,0.0908 -0.264132,-0.0928 -0.385114,-0.40809 z m 4.914859,-2.6322 c -0.55274,-1.64923 -1.08636,-3.23673 -1.18583,-3.52778 -0.0995,-0.29104 -0.0549,-0.41526 0.0991,-0.27605 0.15395,0.13921 0.72599,1.48858 1.27119,2.99861 0.5452,1.51002 1.00015,2.56702 1.011,2.34888 0.0109,-0.21814 -0.22007,-1.07634 -0.51319,-1.90711 -0.29311,-0.83077 -0.46944,-1.57399 -0.39183,-1.6516 0.0776,-0.0776 0.46702,0.82399 0.86537,2.00355 0.39834,1.17956 0.58668,2.05963 0.41852,1.9557 -0.16815,-0.10392 -0.36504,0.0908 -0.43753,0.43273 -0.0725,0.34193 -0.58404,-0.72769 -1.13677,-2.37693 z m 1.78401,0.48544 c -0.7032,-2.06379 -0.70887,-2.51247 -0.0402,-3.18114 0.96548,-0.96548 1.0366,-2.2142 0.19122,-3.35763 -0.83373,-1.12768 -0.80817,-1.50212 0.0793,-1.16157 1.12728,0.43258 1.88039,3.71345 1.32547,5.77427 -0.41951,1.55793 -1.04911,1.93017 -1.09414,0.64688 -0.0153,-0.43656 -0.10746,-0.59669 -0.20476,-0.35585 -0.0973,0.24084 0.0104,1.00554 0.2394,1.69933 0.22897,0.69379 0.33897,1.33878 0.24444,1.43331 -0.0945,0.0945 -0.42785,-0.57939 -0.74071,-1.4976 z m -17.461385,-0.1673 c -0.386715,-1.10932 -0.565009,-4.84051 -0.214559,-4.49006 0.212665,0.21267 0.884361,5.34281 0.72094,5.50623 -0.06205,0.062 -0.28992,-0.39522 -0.506381,-1.01617 z m 14.257505,-0.92135 c -0.93896,-1.98313 -1.63608,-4.78204 -1.05712,-4.24432 0.35771,0.33223 2.3311,5.97342 2.1522,6.15233 -0.0716,0.0715 -0.56433,-0.78706 -1.09508,-1.90801 z m -5.342115,-0.99528 c -0.321797,-0.49112 -0.495911,-0.98213 -0.38692,-1.09112 0.108987,-0.10899 0.452067,0.29284 0.762399,0.89296 0.680219,1.31539 0.439723,1.44232 -0.375479,0.19816 z m -5.4284,35.394618 c 0,-0.56988 -0.10432,-0.67179 -0.392596,-0.38351 -0.215925,0.21592 -0.285933,0.56517 -0.155568,0.77611 0.36491,0.59044 0.548164,0.45919 0.548164,-0.3926 z m 1.504396,0.56523 c 0.343306,-0.3433 -0.128055,-1.20023 -0.660195,-1.20023 -0.270281,0 -0.491423,0.21167 -0.491423,0.47037 0,0.78134 0.673375,1.20811 1.151618,0.72986 z m 1.670604,-0.7088 c 0,-0.27029 -0.211667,-0.49143 -0.470369,-0.49143 -0.655758,0 -0.924335,0.33784 -0.710851,0.89416 0.226261,0.58963 1.18122,0.26403 1.18122,-0.40273 z m -4.233334,0.008 c 0,-0.30722 -0.188517,-0.49573 -0.418923,-0.41893 -0.654128,0.21803 -0.762621,0.97748 -0.13964,0.97748 0.307209,0 0.558563,-0.25136 0.558563,-0.55857 z m 5.291667,0.20577 c 0,-0.19403 0.3175,-0.35278 0.705556,-0.35278 0.388055,0 0.705555,-0.14792 0.705555,-0.32871 0,-0.58183 -1.934386,-0.15272 -2.054338,0.45571 -0.06273,0.31821 0.05633,0.57856 0.264584,0.57856 0.208252,0 0.378643,-0.15875 0.378643,-0.35278 z m -9.555198,-2.29306 c 0.01065,-0.19403 -0.134493,-0.11465 -0.32258,0.17639 -0.188087,0.29104 -0.333248,0.76729 -0.32258,1.05833 0.02046,0.55875 0.608426,-0.56648 0.64516,-1.23472 z m -6.995417,-0.91892 c -0.185897,-0.46473 -0.348058,-0.65951 -0.360356,-0.43285 -0.02988,0.55055 0.381081,1.59509 0.557964,1.4182 0.07721,-0.0772 -0.01171,-0.52062 -0.197608,-0.98535 z m -3.156352,-8.86987 c -0.10286,-2.05905 -0.191545,-2.38628 -0.454361,-1.67649 -0.17961,0.48507 -0.58243,1.07557 -0.89514,1.31223 -0.51448,0.38933 -0.48803,0.54855 0.27797,1.67328 0.46561,0.68366 0.925929,1.24445 1.022942,1.24621 0.09701,0.002 0.118879,-1.14809 0.04859,-2.55523 z m 34.175959,-0.80999 c 0.29983,-0.90852 0.30672,-1.53476 0.0257,-2.34079 -0.4741,-1.36004 -0.49983,-3.11182 -0.0457,-3.11182 0.4631,0 2.27505,-3.14908 1.98108,-3.44304 -0.3946,-0.3946 -1.3583,0.42421 -2.00541,1.70388 -0.71822,1.42032 -1.36804,9.05199 -0.73757,8.66234 0.20488,-0.12662 0.55672,-0.78838 0.78187,-1.47057 z m 0.0989,-19.169358 c -0.11991,-1.85077 -0.33244,-3.07339 -0.48642,-2.79824 -0.1504,0.26876 -0.13107,1.59427 0.043,2.94558 0.17403,1.3513 0.32162,2.68181 0.32796,2.95668 0.006,0.27487 0.0829,0.42847 0.17,0.34132 0.0872,-0.0871 0.0626,-1.63755 -0.0545,-3.44534 z m -35.97786,-2.33464 0.21435,-1.05833 -0.49875,1.05833 c -0.27432,0.58209 -0.49586,1.37584 -0.49232,1.76389 l 0.007,0.70556 0.27796,-0.70556 c 0.15287,-0.38805 0.37441,-1.1818 0.49231,-1.76389 z m 34.40878,-2.64583 c 2.6e-4,-2.02368 -1.5938,-5.8905 -2.79551,-6.78122 -0.50009,-0.37067 -1.51169,-0.80982 -2.248,-0.97588 -1.6942,-0.38211 -1.22138,0.049 0.91542,0.83469 1.41578,0.52056 1.73787,0.833 2.36746,2.29653 1.15022,2.67375 1.5129,4.77289 1.11934,6.47859 -0.48781,2.11421 -0.37823,2.8276 0.17601,1.1459 0.25579,-0.77611 0.46516,-2.12548 0.46528,-2.99861 z m -35.33556,2.05052 c -0.11261,-0.28142 -0.19621,-0.19783 -0.21313,0.21314 -0.0153,0.37189 0.0681,0.58024 0.18528,0.46302 0.11723,-0.11723 0.12976,-0.4215 0.0278,-0.67616 z m 15.993262,-3.47616 c -0.345486,-0.79265 -0.362059,-0.76479 -0.192271,0.32321 0.102189,0.65484 0.215166,1.84547 0.251058,2.64583 0.06072,1.35394 0.0741,1.33145 0.192271,-0.32321 0.06986,-0.97813 -0.04312,-2.16876 -0.251058,-2.64583 z m 22.106738,3.47616 c -0.11261,-0.28142 -0.19621,-0.19783 -0.21313,0.21314 -0.0153,0.37189 0.0681,0.58024 0.18528,0.46302 0.11723,-0.11723 0.12976,-0.4215 0.0278,-0.67616 z m -37.28265,-1.45393 c 0,-0.25395 -0.23595,-0.76989 -0.52432,-1.14652 -0.4797,-0.6265 -0.49177,-0.5872 -0.14188,0.46174 0.39932,1.19714 0.6662,1.47146 0.6662,0.68478 z m 1.27265,-3.02856 c 0.287698,-1.40446 0.265363,-1.69254 -0.11977,-1.54475 -0.26038,0.0999 -0.71565,0.65008 -1.0117,1.22259 -0.41937,0.81096 -0.44591,1.15224 -0.12015,1.54475 0.67116,0.80869 0.87663,0.60798 1.25162,-1.22259 z m 4.559512,-1.25419 c 0.672864,-0.28115 1.224312,-0.55896 1.225434,-0.61737 0.0091,-0.47295 0.696376,-4.13508 0.880611,-4.6923 0.221177,-0.66896 0.206287,-0.67271 -0.287017,-0.0723 -0.286163,0.3483 -0.629066,1.35861 -0.76201,2.24512 -0.168035,1.12055 -0.433846,1.6621 -0.872067,1.77669 -0.346696,0.0907 -1.405812,0.53628 -2.353596,0.99025 l -1.723242,0.82541 1.334248,0.0278 c 0.733834,0.0153 1.884772,-0.2022 2.557639,-0.48335 z m 0.01178,-1.9957 c 0.109019,-0.17639 -0.248458,-0.13061 -0.794396,0.10174 -1.464133,0.62314 -1.863661,1.07649 -0.542942,0.61608 0.626519,-0.2184 1.228323,-0.54142 1.337338,-0.71782 z m 16.116469,0.15656 c -0.242534,-0.0979 -0.639409,-0.0979 -0.881944,0 -0.242535,0.0979 -0.0441,0.17793 0.440972,0.17793 0.48507,0 0.683507,-0.0801 0.440972,-0.17793 z m -4.829926,-1.01231 c -0.714548,-0.54046 -4.603556,-0.74133 -4.905163,-0.25336 -0.08995,0.14552 0.501886,0.2116 1.315183,0.14684 0.813294,-0.0648 2.028455,0.04 2.700356,0.23277 1.64648,0.4724 1.675638,0.46826 0.889624,-0.12625 z m 10.915345,-0.002 1.41111,-0.48802 -1.5875,0.20736 c -0.87313,0.11404 -1.905,0.33579 -2.293056,0.49277 -1.28723,0.52072 0.891616,0.33358 2.469446,-0.21211 z m 4.56534,-0.68125 c -0.37663,-0.28487 -0.83419,-0.523 -1.0168,-0.52917 -0.1826,-0.006 -0.0238,0.22186 0.35278,0.50673 0.37663,0.28487 0.83419,0.523 1.0168,0.52917 0.1826,0.006 0.0239,-0.22186 -0.35278,-0.50673 z m -18.42579,-1.50076 c 0.638245,0.10713 1.477948,0.30063 1.866004,0.42999 0.692665,0.23091 0.693155,0.22509 0.02692,-0.31827 -0.373261,-0.30442 -1.215574,-0.65421 -1.871811,-0.77732 -0.951576,-0.17852 -1.367737,-0.0598 -2.055379,0.58617 -0.474228,0.44552 -0.862227,0.96877 -0.862227,1.1628 0,0.19403 0.390609,-0.0142 0.868023,-0.46269 0.672504,-0.63178 1.129418,-0.77159 2.028473,-0.62067 z m 1.336837,0.82514 c 0,-0.0744 -0.317719,-0.21833 -0.706042,-0.31988 -0.388324,-0.10155 -0.617079,-0.0407 -0.508346,0.13524 0.189882,0.30724 1.214388,0.463 1.214388,0.18464 z m 9.926006,-1.55378 c -0.254508,-0.0848 -0.63047,0.0135 -0.835469,0.21848 -0.261786,0.26179 -0.124051,0.3077 0.462742,0.15425 0.477026,-0.12474 0.63694,-0.28466 0.372727,-0.37273 z m -2.510596,-0.94829 c -0.278253,-0.33527 -0.305019,-0.53769 -0.07109,-0.53769 0.206333,0 0.473266,0.15875 0.593182,0.35278 0.435758,0.70507 0.907186,0.35356 0.513182,-0.38265 -0.366049,-0.68397 -2.286458,-1.73402 -3.171303,-1.73402 -0.21325,0 0.200953,0.71841 0.920451,1.59646 0.719497,0.87805 1.38775,1.51689 1.485,1.41964 0.09725,-0.0973 -0.02399,-0.41879 -0.26942,-0.71452 z m -7.41541,-0.14967 c 2.944114,-0.23612 2.968632,-0.2457 1.349132,-0.52677 -1.532587,-0.26599 -5.372432,-0.0327 -6.016816,0.36555 -0.569867,0.3522 0.184101,0.88554 0.915137,0.64735 0.414666,-0.1351 2.103311,-0.35387 3.752547,-0.48613 z m 0,-2.50469 c 0.386905,-0.25003 0.120498,-0.34342 -0.99096,-0.34737 -0.924765,-0.003 -1.434733,0.13276 -1.302096,0.34737 0.276571,0.4475 1.600599,0.4475 2.293056,0 z m 31.573613,91.369448 c 0.11991,-0.19403 0.45354,-0.35278 0.7414,-0.35278 0.28785,0 2.54067,-0.66547 5.00626,-1.47883 2.46559,-0.81335 4.60196,-1.44835 4.74748,-1.41111 0.14552,0.0373 0.26458,-0.0892 0.26458,-0.28089 0,-0.19173 0.63211,-0.44969 1.4047,-0.57323 0.77258,-0.12354 1.33136,-0.34328 1.24173,-0.48831 -0.29231,-0.47296 2.3281,-0.69024 3.03093,-0.25132 0.83961,0.52435 0.86218,0.47006 -1.26764,3.04864 -1.34651,1.63024 -1.98563,2.13615 -2.701,2.13808 -0.76393,0.002 -0.90301,-0.12786 -0.7526,-0.70303 0.13474,-0.51526 0.007,-0.71159 -0.474,-0.72792 -0.55162,-0.0187 -0.52896,-0.0744 0.1396,-0.34302 0.43896,-0.17636 1.38863,-0.72193 2.11037,-1.21236 1.22082,-0.82957 1.25124,-0.89116 0.43661,-0.88395 -1.10437,0.01 -3.20184,1.02933 -5.41208,2.63077 -1.68765,1.22278 -1.76862,1.24204 -5.22429,1.24204 -2.25022,0 -3.43183,-0.12663 -3.29205,-0.35278 z m 20.85505,-3.05249 c -0.51684,-7.35265 -2.199,-11.15378 -6.11194,-13.81101 -1.13934,-0.77372 -2.28721,-1.66663 -2.55082,-1.98425 -0.4316,-0.52005 -0.3885,-0.54299 0.43315,-0.2306 3.61627,1.3749 6.93112,3.94695 8.16703,6.33693 0.79997,1.54697 1.98235,7.52436 2.06678,10.44836 0.0698,2.41783 0.0521,2.47167 -0.84548,2.57593 l -0.91678,0.10647 z m -79.28477,2.43513 c -0.43881,-0.55953 -0.42634,-0.57201 0.13319,-0.1332 0.33955,0.2663 0.61736,0.54411 0.61736,0.61736 0,0.29035 -0.2897,0.10348 -0.75055,-0.48416 z m 60.01722,-0.57622 c 0,-0.0744 0.31772,-0.21833 0.70604,-0.31988 0.38832,-0.10154 0.61708,-0.0407 0.50835,0.13525 -0.18989,0.30723 -1.21439,0.463 -1.21439,0.18463 z M 39.6441,160.9963 c 0.48507,-0.15535 1.19944,-0.28245 1.5875,-0.28245 0.55868,0 0.52196,0.0588 -0.17639,0.28245 -0.48507,0.15534 -1.19944,0.28244 -1.5875,0.28244 -0.55868,0 -0.52196,-0.0588 0.17639,-0.28244 z m 13.05278,-0.45862 c 0,-0.44626 -0.1905,-1.00188 -0.42333,-1.23472 -0.32926,-0.32926 -0.29007,-0.42333 0.17638,-0.42333 0.45022,0 0.59973,0.30782 0.59973,1.23472 0,0.6791 -0.0794,1.23472 -0.17639,1.23472 -0.097,0 -0.17639,-0.36512 -0.17639,-0.81139 z m 5.99722,-2.98026 c 0,-0.34624 0.16993,-0.37556 0.65917,-0.11373 0.36255,0.19403 0.78487,0.23931 0.93851,0.10061 0.15363,-0.13869 0.17138,-0.0638 0.0394,0.16635 -0.32088,0.55981 -1.63712,0.43661 -1.63712,-0.15323 z m -14.90486,-3.49754 c 0.24253,-0.0979 0.63941,-0.0979 0.88194,0 0.24254,0.0979 0.0441,0.17794 -0.44097,0.17794 -0.48507,0 -0.68351,-0.0801 -0.44097,-0.17794 z m -1.05422,-0.72142 c 0.43882,-0.0844 1.07382,-0.0812 1.41111,0.007 0.33729,0.0883 -0.0217,0.15734 -0.79786,0.15343 -0.77612,-0.004 -1.05208,-0.0762 -0.61325,-0.16055 z m 11.36034,-1.92514 c -0.40397,-0.78771 -0.39451,-0.79717 0.21501,-0.21501 0.35066,0.33493 0.54082,0.70572 0.42256,0.82397 -0.11825,0.11825 -0.40515,-0.15578 -0.63757,-0.60896 z m -9.60057,-0.52844 c 0.24254,-0.0979 0.63941,-0.0979 0.88195,0 0.24253,0.0979 0.0441,0.17794 -0.44097,0.17794 -0.48507,0 -0.68351,-0.0801 -0.44098,-0.17794 z m 79.81598,-1.06834 c -0.87313,-0.51838 -2.38492,-1.52715 -3.35954,-2.24171 -2.06282,-1.51238 -4.49245,-2.80631 -5.26946,-2.80631 -0.41902,0 -0.54322,-0.41675 -0.54322,-1.82269 0,-2.25357 -0.43635,-1.94458 -0.73633,0.52142 -0.18719,1.53876 -0.23058,1.30821 -0.27234,-1.44681 -0.0386,-2.54776 -0.21219,-3.59584 -0.77983,-4.70849 -0.40159,-0.78719 -0.67581,-1.4856 -0.60938,-1.55204 0.31221,-0.31221 18.30034,8.31117 19.77218,9.47864 0.88642,0.70311 0.80418,0.76341 -1.05856,0.77617 -1.62592,0.0111 -1.67874,0.045 -1.78601,1.14652 -0.0608,0.62428 -0.27319,1.13506 -0.47198,1.13506 -0.22807,0 -0.27069,-0.53716 -0.11549,-1.45576 0.17383,-1.02885 0.13119,-1.38483 -0.14538,-1.2139 -0.21523,0.13302 -0.39133,0.54998 -0.39133,0.92659 0,0.3766 -0.14023,0.68473 -0.31163,0.68473 -0.1714,0 -0.41206,0.35719 -0.53481,0.79375 -0.20508,0.72943 -0.25304,0.74315 -0.59182,0.16927 -0.20276,-0.34346 -0.27885,-0.90741 -0.1691,-1.25323 0.10976,-0.34581 -0.0343,-0.93792 -0.32004,-1.31579 -0.31126,-0.41157 -0.5241,-0.50451 -0.53082,-0.2318 -0.007,0.27117 -0.39591,0.0985 -0.96263,-0.42695 -1.36768,-1.26819 -2.80091,-1.80862 -3.42433,-1.29123 -0.37804,0.31374 -0.5286,0.30824 -0.63914,-0.0234 -0.10889,-0.32667 -0.33245,-0.30222 -0.90527,0.099 -0.75853,0.5313 -0.75649,0.53688 0.72766,1.99076 1.42642,1.39733 1.547,1.44468 2.89912,1.13834 1.69931,-0.385 2.33188,0.0397 1.47287,0.98891 -0.32568,0.35988 -0.48597,0.7605 -0.3562,0.89028 0.58449,0.58449 -0.55075,0.14943 -1.76746,-0.67735 -0.73922,-0.50232 -1.42093,-0.83642 -1.51491,-0.74244 -0.094,0.094 0.87087,0.84456 2.1441,1.66798 1.9993,1.29297 2.5971,1.76233 2.22677,1.74832 -0.0485,-0.002 -0.80257,-0.42747 -1.67569,-0.94586 z m -3.72636,-3.68036 c -1.11694,-1.1877 -2.85073,-2.07322 -4.05925,-2.07322 -0.48282,0 -0.0126,0.38726 1.31159,1.08006 1.13536,0.59403 2.29675,1.30841 2.58087,1.5875 1.02792,1.00976 1.17671,0.47956 0.16679,-0.59434 z m -1.21253,-2.77877 c 0.47037,-0.30398 0.47037,-0.34377 0,-0.35811 -0.40445,-0.0123 -0.37765,-0.10424 0.11375,-0.39001 0.3536,-0.20563 1.06798,-0.27264 1.5875,-0.14891 2.14354,0.51053 2.30799,0.51442 1.29736,0.0307 -1.12023,-0.53624 -5.67638,-0.39561 -6.32161,0.19511 -0.73132,0.66954 2.35951,1.29391 3.323,0.67126 z m 7.58472,6.88785 -1.05833,-0.48867 1.05833,0.16664 c 0.58209,0.0916 1.77271,0.30131 2.64584,0.46592 l 1.5875,0.29929 -1.5875,0.0228 c -0.87313,0.0125 -2.06375,-0.19716 -2.64584,-0.46592 z M 44.86962,149.8192 c 0.25466,-0.10191 0.55893,-0.0894 0.67616,0.0278 0.11722,0.11723 -0.0911,0.20061 -0.46302,0.18529 -0.41097,-0.0169 -0.49456,-0.10052 -0.21314,-0.21314 z m 11.65408,-0.19999 c -0.0296,-0.24253 -0.0712,-0.62875 -0.0927,-0.85826 -0.0214,-0.22951 -0.41073,-0.81308 -0.86517,-1.2968 -1.25624,-1.33721 -0.71301,-1.72569 2.0175,-1.44276 3.47708,0.3603 3.55465,0.4985 1.34119,2.38952 -2.0684,1.76709 -2.3175,1.89246 -2.40087,1.2083 z m -11.77385,-0.60195 c 0.11468,-0.18556 0.44155,-0.24795 0.72638,-0.13865 0.72923,0.27984 0.6433,0.47602 -0.20851,0.47602 -0.3995,0 -0.63254,-0.15182 -0.51787,-0.33737 z m 8.31061,-0.0154 c 0,-0.29104 0.15389,-0.76729 0.34197,-1.05833 0.30398,-0.47037 0.34198,-0.47037 0.34198,0 0,0.29104 -0.15389,0.76729 -0.34198,1.05833 -0.30397,0.47037 -0.34197,0.47037 -0.34197,0 z m 73.21153,-0.30876 c 0.17161,-0.62239 0.11655,-0.76717 -0.21404,-0.56285 -0.3004,0.18565 -0.35708,0.13268 -0.17437,-0.16295 0.17879,-0.28929 0.38939,-0.31935 0.62023,-0.0885 0.23084,0.23084 0.2116,0.57069 -0.0567,1.00088 -0.35958,0.57663 -0.37968,0.55523 -0.17516,-0.18657 z m -73.22233,-2.11904 c 0,-0.19403 0.15875,-0.45089 0.35277,-0.57081 0.19403,-0.11992 0.35278,-0.0593 0.35278,0.13475 0,0.19403 -0.15875,0.45089 -0.35278,0.57081 -0.19402,0.11991 -0.35277,0.0593 -0.35277,-0.13475 z m 11.97496,-3.18025 c 0.2184,-0.40807 0.48024,-0.74195 0.58188,-0.74195 0.10164,0 0.0867,0.15875 -0.0332,0.35278 -0.4847,0.78426 0.54139,0.28875 1.13006,-0.54571 0.34861,-0.49417 0.92061,-1.24823 1.27111,-1.67569 l 0.63728,-0.77721 -0.3727,0.77056 c -0.20498,0.4238 -0.37269,1.11793 -0.37269,1.5425 0,0.64617 0.0862,0.70039 0.52916,0.33277 0.347,-0.28798 0.52917,-0.30712 0.52917,-0.0556 0,0.53654 -0.9723,0.98852 -2.76592,1.28576 -1.4773,0.24482 -1.51722,0.22764 -1.13411,-0.4882 z m 48.45935,-1.97667 c 0.002,-1.16417 0.0678,-1.59789 0.14636,-0.96382 0.0785,0.63406 0.0769,1.58656 -0.004,2.11667 -0.0805,0.5301 -0.14474,0.0113 -0.14276,-1.15285 z m -49.53645,-0.14732 c 0.39653,-1.05117 0.89237,-2.08263 1.10188,-2.29214 0.44471,-0.44472 -1.02696,3.32684 -1.5025,3.85057 -0.17618,0.19403 0.004,-0.50727 0.40062,-1.55843 z m 5.50894,0.98281 c 0.4083,-1.34805 0.94975,-1.68546 0.81826,-0.50992 -0.0634,0.56712 -0.33044,1.10184 -0.59333,1.18827 -0.35494,0.11668 -0.41284,-0.058 -0.22493,-0.67835 z m -5.11791,0.26412 c 0,-0.3786 1.04964,-2.33433 1.25284,-2.33433 0.097,0 -0.086,0.51593 -0.4067,1.14652 -0.65484,1.28761 -0.84614,1.55615 -0.84614,1.18781 z m 1.60649,-0.18693 c -0.13036,-0.21093 -0.0689,-0.38351 0.13658,-0.38351 0.20547,0 0.37359,-0.30813 0.37359,-0.68474 0,-0.3766 0.18191,-0.79716 0.40423,-0.93456 0.28809,-0.17805 0.33159,0.044 0.15143,0.77293 -0.30671,1.24083 -0.74587,1.74759 -1.06583,1.22988 z m -6.36899,-1.79463 c 0.11991,-0.19402 0.28803,-0.35277 0.37359,-0.35277 0.0856,0 0.15557,0.15875 0.15557,0.35277 0,0.19403 -0.16812,0.35278 -0.37359,0.35278 -0.20548,0 -0.27549,-0.15875 -0.15557,-0.35278 z m 7.21747,-1.34322 c 0.43835,-0.64176 0.89032,-1.07352 1.00439,-0.95945 0.11406,0.11406 -0.24459,0.63914 -0.797,1.16684 l -1.00439,0.95945 z m 7.29,0.44764 c -0.12099,-0.31528 -0.20566,-0.91744 -0.18816,-1.33813 0.0225,-0.54198 0.13122,-0.41949 0.37289,0.42032 0.35138,1.22102 0.20696,1.93855 -0.18473,0.91781 z m -0.84368,-4.39608 c 0,-0.6791 0.0726,-0.95691 0.16133,-0.61736 0.0887,0.33955 0.0887,0.89517 0,1.23472 -0.0887,0.33955 -0.16133,0.0617 -0.16133,-0.61736 z M 72.4542,114.2579 c -0.55861,-1.46926 -1.1042,-6.86828 -0.86928,-8.60215 0.34341,-2.53451 0.49926,-2.8687 1.33226,-2.85656 0.69365,0.0101 0.71205,0.0553 0.18567,0.4557 -0.43977,0.33452 -0.49621,0.6019 -0.22815,1.08088 0.22164,0.39606 0.24771,1.38973 0.069,2.63111 -0.15793,1.09709 -0.25397,2.23283 -0.21343,2.52387 0.16564,1.18919 0.3174,5.64444 0.19226,5.64444 -0.0741,0 -0.28489,-0.39478 -0.46834,-0.87729 z m 4.231569,-34.649308 c 0,-0.17508 0.553974,-0.85525 1.231053,-1.5115 0.677076,-0.65626 1.323337,-1.67958 1.43613,-2.27407 0.267473,-1.40972 0.785644,-2.0773 2.165993,-2.79056 1.519911,-0.78536 1.953764,-0.74004 0.63488,0.0663 -1.334531,0.81593 -1.671666,1.26351 -2.433641,3.23085 -0.544725,1.40643 -3.034415,4.09676 -3.034415,3.27895 z m 23.23422,-5.76831 c -0.78903,-0.68732 -0.792117,-0.70578 -0.05873,-0.35089 0.425761,0.20603 0.871681,0.53249 0.990951,0.72548 0.34681,0.56113 -0.0334,0.40835 -0.932224,-0.37459 z"
       id="path69" />
  </g>
  <metadata
     id="metadata447">
    <rdf:RDF>
      <cc:Work
         rdf:about="">
        <dc:title>Vectorized</dc:title>
      </cc:Work>
    </rdf:RDF>
  </metadata>
</svg>
